^C:\USERS\FPM.STUDENT\SOURCE\REPOS\LAB1\PEREVOD\SOURCE.CPP
C:\USERS\FPM.STUDENT\SOURCE\REPOS\LAB1\PEREVOD\DEBUG\VC141.PDB
C:\USERS\FPM.STUDENT\SOURCE\REPOS\LAB1\PEREVOD\DEBUG\VC141.IDB
C:\USERS\FPM.STUDENT\SOURCE\REPOS\LAB1\PEREVOD\DEBUG\SOURCE.OBJ
